{
	"US": {
		"Millions": {
			"youtube": 46250000,
			"facebook": 74875000,
			"yahoo": 11600000,
			"ebay": 10337500,
			"bing": 2077500,
			"instagram": 3692500,
			"twitter": 3087500,
			"pornhub": 22450000,
			"craigslist": 12300000,
			"paypal": 2322500,
			"msn": 3775000
		},
		"Million": {
			"reddit": 1530000,
			"pizza": 1022500
		},
		"HundredK": {
		},
		"HundredKs": {
			"wikipedia": 685000,
			"chase": 850000,
			"nytimes": 426625,
			"aliexpress": 560000,
			"imgur": 290375,
			"biographies": 835259
		},
		"TenKs": {
			"office": 92000,
			"force": 17500,
			"house": 87000,
			"hamburger": 28188,
			"windows": 55875,
			"light": 13751
		},
		"TenK": {
		}
	}
}
